{
  "5481":{"machineName":"5481","gameCode":"ticketcircus","status":0,"isInWarningState":false,"statusCode":1,"defaultGameId":3,"isInAutoplay":false,"queueSize":0,"previewCamera":"wss://staging-preview.sungamer.com/ws","machineIndex":9598490560780552,"isAvailable":true,"isOnline":true,"isFreeToPlay":false,"stakename":0.1, "payoutname":"top win"},
  "5394":{"machineName":"5394","gameCode":"ticketcircus","status":0,"isInWarningState":false,"statusCode":1,"defaultGameId":3,"isInAutoplay":false,"queueSize":0,"previewCamera":"wss://staging-preview.sungamer.com/ws","machineIndex":3005689176610557,"isAvailable":true,"isOnline":true,"isFreeToPlay":false,"stakename":0.1, "payoutname":"top win"},
  "5034":{"machineName":"5034","gameCode":"ticketcircus","status":0,"isInWarningState":false,"statusCode":1,"defaultGameId":3,"isInAutoplay":false,"queueSize":0,"previewCamera":"wss://staging-preview.sungamer.com/ws","machineIndex":2076790849165547,"isAvailable":true,"isOnline":true,"isFreeToPlay":false,"stakename":0.1, "payoutname":"top win"},
  "1":{"machineName":"5436","gameCode":"ticketcircus","status":0,"isInWarningState":false,"statusCode":1,"defaultGameId":3,"isInAutoplay":false,"queueSize":0,"previewCamera":"wss://staging-preview.sungamer.com/ws","machineIndex":1104285069950524,"isAvailable":true,"isOnline":true,"isFreeToPlay":false,"stakename":0.1, "payoutname":"top win"},
  "2":{"machineName":"5436","gameCode":"ticketcircus","house": 2,"status":0,"isInWarningState":false,"statusCode":1,"defaultGameId":3,"isInAutoplay":false,"queueSize":0,"previewCamera":"wss://staging-preview.sungamer.com/ws","machineIndex":1104285069950524,"isAvailable":true,"isOnline":true,"isFreeToPlay":false,"stakename":0.1, "payoutname":"top win"},
  "3":{"machineName":"5436","gameCode":"ticketcircus","house": 2,"status":0,"isInWarningState":false,"statusCode":1,"defaultGameId":3,"isInAutoplay":false,"queueSize":0,"previewCamera":"wss://staging-preview.sungamer.com/ws","machineIndex":1104285069950524,"isAvailable":true,"isOnline":true,"isFreeToPlay":false,"stakename":0.1, "payoutname":"top win"},
  "4":{"machineName":"5436","gameCode":"ticketcircus","house": 2,"status":0,"isInWarningState":false,"statusCode":1,"defaultGameId":3,"isInAutoplay":false,"queueSize":0,"previewCamera":"wss://staging-preview.sungamer.com/ws","machineIndex":1104285069950524,"isAvailable":true,"isOnline":true,"isFreeToPlay":false,"stakename":0.1, "payoutname":"top win"},
  "5":{"machineName":"5436","gameCode":"ticketcircus","house": 2,"status":0,"isInWarningState":false,"statusCode":1,"defaultGameId":3,"isInAutoplay":false,"queueSize":0,"previewCamera":"wss://staging-preview.sungamer.com/ws","machineIndex":1104285069950524,"isAvailable":true,"isOnline":true,"isFreeToPlay":false,"stakename":0.1, "payoutname":"top win"},
  "6":{"machineName":"5436","gameCode":"ticketcircus","house": 2,"status":0,"isInWarningState":false,"statusCode":1,"defaultGameId":3,"isInAutoplay":false,"queueSize":0,"previewCamera":"wss://staging-preview.sungamer.com/ws","machineIndex":1104285069950524,"isAvailable":true,"isOnline":true,"isFreeToPlay":false,"stakename":0.1, "payoutname":"top win"},
  "7":{"machineName":"5436","gameCode":"ticketcircus","house": 2,"status":0,"isInWarningState":false,"statusCode":1,"defaultGameId":3,"isInAutoplay":false,"queueSize":0,"previewCamera":"wss://staging-preview.sungamer.com/ws","machineIndex":1104285069950524,"isAvailable":true,"isOnline":true,"isFreeToPlay":false,"stakename":0.1, "payoutname":"top win"},
  "8":{"machineName":"5436","gameCode":"ticketcircus","house": 2,"status":0,"isInWarningState":false,"statusCode":1,"defaultGameId":3,"isInAutoplay":false,"queueSize":0,"previewCamera":"wss://staging-preview.sungamer.com/ws","machineIndex":1104285069950524,"isAvailable":true,"isOnline":true,"isFreeToPlay":false,"stakename":0.1, "payoutname":"top win"},
  "9":{"machineName":"5436","gameCode":"ticketcircus","house": 2,"status":0,"isInWarningState":false,"statusCode":1,"defaultGameId":3,"isInAutoplay":false,"queueSize":0,"previewCamera":"wss://staging-preview.sungamer.com/ws","machineIndex":1104285069950524,"isAvailable":true,"isOnline":true,"isFreeToPlay":false,"stakename":0.1, "payoutname":"top win"},
  "10":{"machineName":"5436","gameCode":"ticketcircus","house": 2,"status":0,"isInWarningState":false,"statusCode":1,"defaultGameId":3,"isInAutoplay":false,"queueSize":0,"previewCamera":"wss://staging-preview.sungamer.com/ws","machineIndex":1104285069950524,"isAvailable":true,"isOnline":true,"isFreeToPlay":false,"stakename":0.1, "payoutname":"top win"},
  "12":{"machineName":"5436","gameCode":"ticketcircus","house": 2,"status":0,"isInWarningState":false,"statusCode":1,"defaultGameId":3,"isInAutoplay":false,"queueSize":0,"previewCamera":"wss://staging-preview.sungamer.com/ws","machineIndex":1104285069950524,"isAvailable":true,"isOnline":true,"isFreeToPlay":false,"stakename":0.1, "payoutname":"top win"},
  "11":{"machineName":"5436","gameCode":"ticketcircus","house": 2,"status":0,"isInWarningState":false,"statusCode":1,"defaultGameId":3,"isInAutoplay":false,"queueSize":0,"previewCamera":"wss://staging-preview.sungamer.com/ws","machineIndex":1104285069950524,"isAvailable":true,"isOnline":true,"isFreeToPlay":false,"stakename":0.1, "payoutname":"top win"},
  "13":{"machineName":"5436","gameCode":"ticketcircus","house": 2,"status":0,"isInWarningState":false,"statusCode":1,"defaultGameId":3,"isInAutoplay":false,"queueSize":0,"previewCamera":"wss://staging-preview.sungamer.com/ws","machineIndex":1104285069950524,"isAvailable":true,"isOnline":true,"isFreeToPlay":false,"stakename":0.1, "payoutname":"top win"},
  "14":{"machineName":"5436","gameCode":"ticketcircus","house": 2,"status":0,"isInWarningState":false,"statusCode":1,"defaultGameId":3,"isInAutoplay":false,"queueSize":0,"previewCamera":"wss://staging-preview.sungamer.com/ws","machineIndex":1104285069950524,"isAvailable":true,"isOnline":true,"isFreeToPlay":false,"stakename":0.1, "payoutname":"top win"},
  "15":{"machineName":"5436","gameCode":"ticketcircus","house": 2,"status":0,"isInWarningState":false,"statusCode":1,"defaultGameId":3,"isInAutoplay":false,"queueSize":0,"previewCamera":"wss://staging-preview.sungamer.com/ws","machineIndex":1104285069950524,"isAvailable":true,"isOnline":true,"isFreeToPlay":false,"stakename":0.1, "payoutname":"top win"},
  "16":{"machineName":"5436","gameCode":"ticketcircus","house": 2,"status":0,"isInWarningState":false,"statusCode":1,"defaultGameId":3,"isInAutoplay":false,"queueSize":0,"previewCamera":"wss://staging-preview.sungamer.com/ws","machineIndex":1104285069950524,"isAvailable":true,"isOnline":true,"isFreeToPlay":false,"stakename":0.1, "payoutname":"top win"},
  "17":{"machineName":"5436","gameCode":"ticketcircus","house": 2,"status":0,"isInWarningState":false,"statusCode":1,"defaultGameId":3,"isInAutoplay":false,"queueSize":0,"previewCamera":"wss://staging-preview.sungamer.com/ws","machineIndex":1104285069950524,"isAvailable":true,"isOnline":true,"isFreeToPlay":false,"stakename":0.1, "payoutname":"top win"},
  "18":{"machineName":"5436","gameCode":"ticketcircus","house": 2,"status":0,"isInWarningState":false,"statusCode":1,"defaultGameId":3,"isInAutoplay":false,"queueSize":0,"previewCamera":"wss://staging-preview.sungamer.com/ws","machineIndex":1104285069950524,"isAvailable":true,"isOnline":true,"isFreeToPlay":false,"stakename":0.1, "payoutname":"top win"},
  "19":{"machineName":"5436","gameCode":"ticketcircus","house": 2,"status":0,"isInWarningState":false,"statusCode":1,"defaultGameId":3,"isInAutoplay":false,"queueSize":0,"previewCamera":"wss://staging-preview.sungamer.com/ws","machineIndex":1104285069950524,"isAvailable":true,"isOnline":true,"isFreeToPlay":false,"stakename":0.1, "payoutname":"top win"},
  "20":{"machineName":"5436","gameCode":"ticketcircus","house": 2,"status":0,"isInWarningState":false,"statusCode":1,"defaultGameId":3,"isInAutoplay":false,"queueSize":0,"previewCamera":"wss://staging-preview.sungamer.com/ws","machineIndex":1104285069950524,"isAvailable":true,"isOnline":true,"isFreeToPlay":false,"stakename":0.1, "payoutname":"top win"},
  "21":{"machineName":"5436","gameCode":"ticketcircus","house": 2,"status":0,"isInWarningState":false,"statusCode":1,"defaultGameId":3,"isInAutoplay":false,"queueSize":0,"previewCamera":"wss://staging-preview.sungamer.com/ws","machineIndex":1104285069950524,"isAvailable":true,"isOnline":true,"isFreeToPlay":false,"stakename":0.1, "payoutname":"top win"},
  "22":{"machineName":"5436","gameCode":"ticketcircus","house": 2,"status":0,"isInWarningState":false,"statusCode":1,"defaultGameId":3,"isInAutoplay":false,"queueSize":0,"previewCamera":"wss://staging-preview.sungamer.com/ws","machineIndex":1104285069950524,"isAvailable":true,"isOnline":true,"isFreeToPlay":false,"stakename":0.1, "payoutname":"top win"},
  "23":{"machineName":"5436","gameCode":"ticketcircus","house": 2,"status":0,"isInWarningState":false,"statusCode":1,"defaultGameId":3,"isInAutoplay":false,"queueSize":0,"previewCamera":"wss://staging-preview.sungamer.com/ws","machineIndex":1104285069950524,"isAvailable":true,"isOnline":true,"isFreeToPlay":false,"stakename":0.1, "payoutname":"top win"},
  "24":{"machineName":"5436","gameCode":"ticketcircus","house": 2,"status":0,"isInWarningState":false,"statusCode":1,"defaultGameId":3,"isInAutoplay":false,"queueSize":0,"previewCamera":"wss://staging-preview.sungamer.com/ws","machineIndex":1104285069950524,"isAvailable":true,"isOnline":true,"isFreeToPlay":false,"stakename":0.1, "payoutname":"top win"},
  "5479":{"machineName":"5436","gameCode":"ticketcircus","house": 2,"status":0,"isInWarningState":false,"statusCode":1,"defaultGameId":3,"isInAutoplay":false,"queueSize":0,"previewCamera":"wss://staging-preview.sungamer.com/ws","machineIndex":1104285069950524,"isAvailable":true,"isOnline":true,"isFreeToPlay":false,"stakename":0.2, "payoutname":"top win"}
}