{
  "5263":{"machineName":"5263","gameCode":"ticketcircus","isAvailable":true,"status":0,"isInWarningState":false,"statusCode":1,"defaultGameId":5,"isInAutoplay":false,"previewCamera":"wss://preview.sungamer.com/ws","machineIndex":892483123,"isOnline":true,"isFreeToPlay":true,"biggestGameWin":1,"tokensFired":437,"lastWin":1,"totalWin":1,"queueSize":0},
  "5265":{"machineName":"5265","gameCode":"ticketcircus","isAvailable":true,"status":0,"isInWarningState":false,"statusCode":1,"defaultGameId":5,"isInAutoplay":false,"previewCamera":"wss://preview.sungamer.com/ws","machineIndex":892483125,"isOnline":true,"isFreeToPlay":true,"biggestGameWin":0,"tokensFired":107,"lastWin":0,"totalWin":0,"queueSize":0},
  "4850":{"machineName":"4850","gameCode":"ticketcircus","isAvailable":false,"status":0,"isInWarningState":false,"statusCode":3,"defaultGameId":1,"isInAutoplay":false,"previewCamera":"wss://preview.sungamer.com/ws","machineIndex":876098864,"isOnline":false,"isFreeToPlay":true,"biggestGameWin":130,"tokensFired":12112,"lastWin":3,"totalWin":696,"queueSize":0},
  "2270":{"machineName":"2270","gameCode":"pearlpusher","isAvailable":true,"status":0,"isInWarningState":false,"statusCode":1,"defaultGameId":2,"isInAutoplay":false,"previewCamera":"wss://preview.sungamer.com/ws","machineIndex":842151728,"isOnline":true,"isFreeToPlay":true,"biggestGameWin":7,"tokensFired":741,"lastWin":1,"totalWin":16,"queueSize":0},
  "4848":{"machineName":"4848","gameCode":"ticketcircus","isAvailable":true,"status":0,"isInWarningState":false,"statusCode":1,"defaultGameId":5,"isInAutoplay":false,"previewCamera":"wss://preview.sungamer.com/ws","machineIndex":876098616,"isOnline":true,"isFreeToPlay":true,"biggestGameWin":34,"tokensFired":1422,"lastWin":1,"totalWin":72,"queueSize":0},
  "4849":{"machineName":"4849","gameCode":"ticketcircus","isAvailable":true,"status":0,"isInWarningState":false,"statusCode":1,"defaultGameId":5,"isInAutoplay":false,"previewCamera":"wss://preview.sungamer.com/ws","machineIndex":876098617,"isOnline":true,"isFreeToPlay":true,"biggestGameWin":2,"tokensFired":428,"lastWin":1,"totalWin":3,"queueSize":0},
  "4840":{"machineName":"4840","gameCode":"ticketcircus","isAvailable":true,"status":0,"isInWarningState":false,"statusCode":1,"defaultGameId":5,"isInAutoplay":false,"previewCamera":"wss://preview.sungamer.com/ws","machineIndex":876098608,"isOnline":true,"isFreeToPlay":true,"biggestGameWin":164,"tokensFired":15685,"lastWin":1,"totalWin":939,"queueSize":0},
  "4886":{"machineName":"4886","gameCode":"ticketcircus","isAvailable":true,"status":0,"isInWarningState":false,"statusCode":1,"defaultGameId":6,"isInAutoplay":false,"previewCamera":"wss://preview.sungamer.com/ws","machineIndex":876099638,"isOnline":true,"isFreeToPlay":true,"biggestGameWin":0,"tokensFired":319,"lastWin":0,"totalWin":0,"queueSize":0},
  "4842":{"machineName":"4842","gameCode":"ticketcircus","isAvailable":false,"status":0,"isInWarningState":false,"statusCode":3,"defaultGameId":5,"isInAutoplay":false,"previewCamera":"wss://preview.sungamer.com/ws","machineIndex":876098610,"isOnline":false,"isFreeToPlay":true,"biggestGameWin":0,"tokensFired":338,"lastWin":0,"totalWin":0,"queueSize":0},
  "4887":{"machineName":"4887","gameCode":"ticketcircus","isAvailable":true,"status":0,"isInWarningState":false,"statusCode":1,"defaultGameId":1,"isInAutoplay":false,"previewCamera":"wss://preview.sungamer.com/ws","machineIndex":876099639,"isOnline":true,"isFreeToPlay":true,"biggestGameWin":21,"tokensFired":2823,"lastWin":1,"totalWin":46,"queueSize":0},
  "4843":{"machineName":"4843","gameCode":"ticketcircus","isAvailable":true,"status":0,"isInWarningState":false,"statusCode":1,"defaultGameId":5,"isInAutoplay":false,"previewCamera":"wss://preview.sungamer.com/ws","machineIndex":876098611,"isOnline":true,"isFreeToPlay":true,"biggestGameWin":5,"tokensFired":805,"lastWin":1,"totalWin":9,"queueSize":0},
  "4844":{"machineName":"4844","gameCode":"ticketcircus","isAvailable":true,"status":0,"isInWarningState":false,"statusCode":1,"defaultGameId":5,"isInAutoplay":false,"previewCamera":"wss://preview.sungamer.com/ws","machineIndex":876098612,"isOnline":true,"isFreeToPlay":true,"biggestGameWin":22,"tokensFired":1424,"lastWin":1,"totalWin":27,"queueSize":0},
  "4845":{"machineName":"4845","gameCode":"ticketcircus","isAvailable":true,"status":0,"isInWarningState":false,"statusCode":1,"defaultGameId":5,"isInAutoplay":false,"previewCamera":"wss://preview.sungamer.com/ws","machineIndex":876098613,"isOnline":true,"isFreeToPlay":true,"biggestGameWin":1,"tokensFired":764,"lastWin":1,"totalWin":4,"queueSize":0},
  "4846":{"machineName":"4846","gameCode":"ticketcircus","isAvailable":false,"status":0,"isInWarningState":false,"statusCode":3,"defaultGameId":5,"isInAutoplay":false,"previewCamera":"wss://preview.sungamer.com/ws","machineIndex":876098614,"isOnline":false,"isFreeToPlay":true,"biggestGameWin":92,"tokensFired":2703,"lastWin":4,"totalWin":357,"queueSize":0},
  "4847":{"machineName":"4847","gameCode":"ticketcircus","isAvailable":true,"status":0,"isInWarningState":false,"statusCode":1,"defaultGameId":5,"isInAutoplay":false,"previewCamera":"wss://preview.sungamer.com/ws","machineIndex":876098615,"isOnline":true,"isFreeToPlay":true,"biggestGameWin":57,"tokensFired":1433,"lastWin":1,"totalWin":82,"queueSize":0},
  "5033":{"machineName":"5033","gameCode":"ticketcircus","isAvailable":true,"status":0,"isInWarningState":false,"statusCode":1,"defaultGameId":5,"isInAutoplay":false,"previewCamera":"wss://preview.sungamer.com/ws","machineIndex":892351283,"isOnline":true,"isFreeToPlay":true,"biggestGameWin":23,"tokensFired":3154,"lastWin":3,"totalWin":113,"queueSize":0},
  "3374":{"machineName":"3374","gameCode":"ticketcircus","isAvailable":true,"status":0,"isInWarningState":false,"statusCode":1,"defaultGameId":6,"isInAutoplay":false,"previewCamera":"wss://preview.sungamer.com/ws","machineIndex":858994484,"isOnline":true,"isFreeToPlay":true,"biggestGameWin":108,"tokensFired":3463,"lastWin":4,"totalWin":146,"queueSize":0},
  "5191":{"machineName":"5191","gameCode":"ticketcircus","isAvailable":true,"status":0,"isInWarningState":false,"statusCode":1,"defaultGameId":5,"isInAutoplay":false,"previewCamera":"wss://preview.sungamer.com/ws","machineIndex":892418353,"isOnline":true,"isFreeToPlay":true,"biggestGameWin":0,"tokensFired":7,"lastWin":0,"totalWin":0,"queueSize":0},
  "3366":{"machineName":"3366","gameCode":"ticketcircus","isAvailable":true,"status":0,"isInWarningState":false,"statusCode":1,"defaultGameId":6,"isInAutoplay":false,"previewCamera":"wss://preview.sungamer.com/ws","machineIndex":858994230,"isOnline":true,"isFreeToPlay":true,"biggestGameWin":106,"tokensFired":9255,"lastWin":4,"totalWin":464,"queueSize":0},
  "4851":{"machineName":"4851","gameCode":"ticketcircus","isAvailable":false,"status":0,"isInWarningState":false,"statusCode":3,"defaultGameId":5,"isInAutoplay":false,"previewCamera":"wss://preview.sungamer.com/ws","machineIndex":876098865,"isOnline":false,"isFreeToPlay":true,"biggestGameWin":4,"tokensFired":2465,"lastWin":1,"totalWin":12,"queueSize":0},
  "4852":{"machineName":"4852","gameCode":"ticketcircus","isAvailable":false,"status":0,"isInWarningState":false,"statusCode":3,"defaultGameId":6,"isInAutoplay":false,"previewCamera":"wss://preview.sungamer.com/ws","machineIndex":876098866,"isOnline":false,"isFreeToPlay":true,"biggestGameWin":3942,"tokensFired":133879,"lastWin":1,"totalWin":16553,"queueSize":0},
  "4853":{"machineName":"4853","gameCode":"ticketcircus","isAvailable":false,"status":0,"isInWarningState":false,"statusCode":3,"defaultGameId":7,"isInAutoplay":false,"previewCamera":"wss://preview.sungamer.com/ws","machineIndex":876098867,"isOnline":false,"isFreeToPlay":true,"biggestGameWin":32,"tokensFired":2218,"lastWin":2,"totalWin":170,"queueSize":0},
  "4854":{"machineName":"4854","gameCode":"ticketcircus","isAvailable":false,"status":0,"isInWarningState":false,"statusCode":3,"defaultGameId":1,"isInAutoplay":false,"previewCamera":"wss://preview.sungamer.com/ws","machineIndex":876098868,"isOnline":false,"isFreeToPlay":true,"biggestGameWin":79,"tokensFired":7585,"lastWin":3,"totalWin":638,"queueSize":0},
  "4855":{"machineName":"4855","gameCode":"ticketcircus","isAvailable":true,"status":0,"isInWarningState":false,"statusCode":1,"defaultGameId":6,"isInAutoplay":false,"previewCamera":"wss://preview.sungamer.com/ws","machineIndex":876098869,"isOnline":true,"isFreeToPlay":true,"biggestGameWin":20,"tokensFired":1807,"lastWin":3,"totalWin":35,"queueSize":0},
  "4856":{"machineName":"4856","gameCode":"ticketcircus","isAvailable":false,"status":0,"isInWarningState":false,"statusCode":3,"defaultGameId":6,"isInAutoplay":false,"previewCamera":"wss://preview.sungamer.com/ws","machineIndex":876098870,"isOnline":false,"isFreeToPlay":true,"biggestGameWin":8,"tokensFired":4943,"lastWin":4,"totalWin":8,"queueSize":0},
  "4857":{"machineName":"4857","gameCode":"ticketcircus","isAvailable":true,"status":0,"isInWarningState":false,"statusCode":1,"defaultGameId":6,"isInAutoplay":false,"previewCamera":"wss://preview.sungamer.com/ws","machineIndex":876098871,"isOnline":true,"isFreeToPlay":true,"biggestGameWin":5,"tokensFired":1561,"lastWin":2,"totalWin":19,"queueSize":0},
  "4858":{"machineName":"4858","gameCode":"ticketcircus","isAvailable":true,"status":0,"isInWarningState":false,"statusCode":1,"defaultGameId":1,"isInAutoplay":false,"previewCamera":"wss://preview.sungamer.com/ws","machineIndex":876098872,"isOnline":true,"isFreeToPlay":true,"biggestGameWin":16,"tokensFired":1810,"lastWin":3,"totalWin":21,"queueSize":0},
  "5086":{"machineName":"5086","gameCode":"ticketcircus","isAvailable":false,"status":0,"isInWarningState":false,"statusCode":1,"defaultGameId":5,"isInAutoplay":false,"previewCamera":"wss://preview.sungamer.com/ws","machineIndex":892352566,"isOnline":false,"isFreeToPlay":true,"biggestGameWin":1,"tokensFired":98,"lastWin":1,"totalWin":1,"queueSize":0},
  "5321":{"machineName":"5321","gameCode":"ticketcircus","isAvailable":true,"status":0,"isInWarningState":false,"statusCode":1,"defaultGameId":5,"isInAutoplay":false,"previewCamera":"wss://preview.sungamer.com/ws","machineIndex":892547633,"isOnline":true,"isFreeToPlay":true,"biggestGameWin":17,"tokensFired":1712,"lastWin":4,"totalWin":19,"queueSize":0},
  "5003":{"machineName":"5003","gameCode":"ticketcircus","isAvailable":true,"status":0,"isInWarningState":false,"statusCode":1,"defaultGameId":5,"isInAutoplay":false,"previewCamera":"wss://preview.sungamer.com/ws","machineIndex":892350515,"isOnline":true,"isFreeToPlay":true,"biggestGameWin":6,"tokensFired":319,"lastWin":3,"totalWin":6,"queueSize":0},
  "4826":{"machineName":"4826","gameCode":"ticketcircus","isAvailable":true,"status":0,"isInWarningState":false,"statusCode":1,"defaultGameId":5,"isInAutoplay":false,"previewCamera":"wss://preview.sungamer.com/ws","machineIndex":876098102,"isOnline":true,"isFreeToPlay":true,"biggestGameWin":15,"tokensFired":3672,"lastWin":1,"totalWin":49,"queueSize":0},
  "2206":{"machineName":"2206","gameCode":"pearlpusher","isAvailable":true,"status":0,"isInWarningState":false,"statusCode":1,"defaultGameId":2,"isInAutoplay":false,"previewCamera":"wss://preview.sungamer.com/ws","machineIndex":842149942,"isOnline":true,"isFreeToPlay":true,"biggestGameWin":20,"tokensFired":1848,"lastWin":3,"totalWin":95,"queueSize":0},
  "4828":{"machineName":"4828","gameCode":"ticketcircus","isAvailable":true,"status":0,"isInWarningState":false,"statusCode":1,"defaultGameId":11,"isInAutoplay":false,"previewCamera":"wss://preview.sungamer.com/ws","machineIndex":876098104,"isOnline":true,"isFreeToPlay":true,"biggestGameWin":19,"tokensFired":10078,"lastWin":3,"totalWin":100,"queueSize":0},
  "2689":{"machineName":"2689","gameCode":"ticketcircus","isAvailable":true,"status":2,"isInWarningState":false,"statusCode":1,"defaultGameId":6,"isInAutoplay":true,"previewCamera":"wss://preview.sungamer.com/ws","machineIndex":842414137,"isOnline":true,"isFreeToPlay":true,"biggestGameWin":80,"tokensFired":21297,"lastWin":2,"totalWin":398,"queueSize":0},
  "4829":{"machineName":"4829","gameCode":"ticketcircus","isAvailable":true,"status":0,"isInWarningState":false,"statusCode":1,"defaultGameId":5,"isInAutoplay":false,"previewCamera":"wss://preview.sungamer.com/ws","machineIndex":876098105,"isOnline":true,"isFreeToPlay":true,"biggestGameWin":4,"tokensFired":1355,"lastWin":2,"totalWin":12,"queueSize":0},
  "2204":{"machineName":"2204","gameCode":"pearlpusher","isAvailable":true,"status":0,"isInWarningState":false,"statusCode":1,"defaultGameId":2,"isInAutoplay":false,"previewCamera":"wss://preview.sungamer.com/ws","machineIndex":842149940,"isOnline":true,"isFreeToPlay":false,"biggestGameWin":24,"tokensFired":1383,"lastWin":1,"totalWin":93,"queueSize":0},
  "2203":{"machineName":"2203","gameCode":"pearlpusher","isAvailable":true,"status":0,"isInWarningState":false,"statusCode":1,"defaultGameId":2,"isInAutoplay":false,"previewCamera":"wss://preview.sungamer.com/ws","machineIndex":842149939,"isOnline":true,"isFreeToPlay":true,"biggestGameWin":16,"tokensFired":563,"lastWin":3,"totalWin":69,"queueSize":0},
  "2201":{"machineName":"2201","gameCode":"pearlpusher","isAvailable":true,"status":0,"isInWarningState":false,"statusCode":1,"defaultGameId":2,"isInAutoplay":false,"previewCamera":"wss://preview.sungamer.com/ws","machineIndex":842149937,"isOnline":true,"isFreeToPlay":true,"biggestGameWin":57,"tokensFired":2835,"lastWin":1,"totalWin":317,"queueSize":0},
  "2200":{"machineName":"2200","gameCode":"pearlpusher","isAvailable":true,"status":0,"isInWarningState":false,"statusCode":1,"defaultGameId":2,"isInAutoplay":false,"previewCamera":"wss://preview.sungamer.com/ws","machineIndex":842149936,"isOnline":true,"isFreeToPlay":true,"biggestGameWin":15,"tokensFired":6025,"lastWin":1,"totalWin":206,"queueSize":0},
  "5313":{"machineName":"5313","gameCode":"ticketcircus","isAvailable":true,"status":0,"isInWarningState":false,"statusCode":1,"defaultGameId":1,"isInAutoplay":false,"previewCamera":"wss://preview.sungamer.com/ws","machineIndex":892547379,"isOnline":true,"isFreeToPlay":true,"biggestGameWin":0,"tokensFired":202,"lastWin":0,"totalWin":0,"queueSize":0},
  "5314":{"machineName":"5314","gameCode":"ticketcircus","isAvailable":true,"status":0,"isInWarningState":false,"statusCode":1,"defaultGameId":1,"isInAutoplay":false,"previewCamera":"wss://preview.sungamer.com/ws","machineIndex":892547380,"isOnline":true,"isFreeToPlay":true,"biggestGameWin":1,"tokensFired":943,"lastWin":1,"totalWin":4,"queueSize":0},
  "4824":{"machineName":"4824","gameCode":"ticketcircus","isAvailable":true,"status":0,"isInWarningState":false,"statusCode":1,"defaultGameId":6,"isInAutoplay":false,"previewCamera":"wss://preview.sungamer.com/ws","machineIndex":876098100,"isOnline":true,"isFreeToPlay":true,"biggestGameWin":36,"tokensFired":1479,"lastWin":3,"totalWin":78,"queueSize":0},
  "4825":{"machineName":"4825","gameCode":"ticketcircus","isAvailable":false,"status":0,"isInWarningState":true,"statusCode":5,"defaultGameId":6,"isInAutoplay":false,"previewCamera":"wss://preview.sungamer.com/ws","machineIndex":876098101,"isOnline":false,"isFreeToPlay":true,"biggestGameWin":116,"tokensFired":7663,"lastWin":4,"totalWin":642,"queueSize":0},
  "4881":{"machineName":"4881","gameCode":"ticketcircus","isAvailable":true,"status":0,"isInWarningState":false,"statusCode":1,"defaultGameId":1,"isInAutoplay":false,"previewCamera":"wss://preview.sungamer.com/ws","machineIndex":876099633,"isOnline":true,"isFreeToPlay":true,"biggestGameWin":3,"tokensFired":1521,"lastWin":3,"totalWin":6,"queueSize":0},
  "4882":{"machineName":"4882","gameCode":"ticketcircus","isAvailable":false,"status":0,"isInWarningState":false,"statusCode":1,"defaultGameId":6,"isInAutoplay":false,"previewCamera":"wss://preview.sungamer.com/ws","machineIndex":876099634,"isOnline":false,"isFreeToPlay":true,"biggestGameWin":44,"tokensFired":1884,"lastWin":3,"totalWin":94,"queueSize":0},
  "4883":{"machineName":"4883","gameCode":"ticketcircus","isAvailable":true,"status":0,"isInWarningState":false,"statusCode":1,"defaultGameId":1,"isInAutoplay":false,"previewCamera":"wss://preview.sungamer.com/ws","machineIndex":876099635,"isOnline":true,"isFreeToPlay":true,"biggestGameWin":7,"tokensFired":1497,"lastWin":3,"totalWin":13,"queueSize":0},
  "5092":{"machineName":"5092","gameCode":"ticketcircus","isAvailable":true,"status":0,"isInWarningState":false,"statusCode":1,"defaultGameId":5,"isInAutoplay":false,"previewCamera":"wss://preview.sungamer.com/ws","machineIndex":892352818,"isOnline":true,"isFreeToPlay":true,"biggestGameWin":63,"tokensFired":4357,"lastWin":2,"totalWin":400,"queueSize":0},
  "5094":{"machineName":"5094","gameCode":"ticketcircus","isAvailable":true,"status":0,"isInWarningState":false,"statusCode":1,"defaultGameId":5,"isInAutoplay":false,"previewCamera":"wss://preview.sungamer.com/ws","machineIndex":892352820,"isOnline":true,"isFreeToPlay":true,"biggestGameWin":5,"tokensFired":893,"lastWin":1,"totalWin":8,"queueSize":0},
  "5095":{"machineName":"5095","gameCode":"ticketcircus","isAvailable":true,"status":0,"isInWarningState":false,"statusCode":1,"defaultGameId":1,"isInAutoplay":false,"previewCamera":"wss://preview.sungamer.com/ws","machineIndex":892352821,"isOnline":true,"isFreeToPlay":true,"biggestGameWin":0,"tokensFired":451,"lastWin":0,"totalWin":0,"queueSize":0},
  "4838":{"machineName":"4838","gameCode":"ticketcircus","isAvailable":true,"status":0,"isInWarningState":false,"statusCode":1,"defaultGameId":7,"isInAutoplay":false,"previewCamera":"wss://preview.sungamer.com/ws","machineIndex":876098360,"isOnline":true,"isFreeToPlay":true,"biggestGameWin":1,"tokensFired":1124,"lastWin":1,"totalWin":1,"queueSize":0},
  "4873":{"machineName":"4873","gameCode":"ticketcircus","isAvailable":true,"status":0,"isInWarningState":false,"statusCode":1,"defaultGameId":6,"isInAutoplay":false,"previewCamera":"wss://preview.sungamer.com/ws","machineIndex":876099379,"isOnline":true,"isFreeToPlay":true,"biggestGameWin":12,"tokensFired":770,"lastWin":1,"totalWin":14,"queueSize":0},
  "4874":{"machineName":"4874","gameCode":"ticketcircus","isAvailable":false,"status":0,"isInWarningState":false,"statusCode":3,"defaultGameId":6,"isInAutoplay":false,"previewCamera":"wss://preview.sungamer.com/ws","machineIndex":876099380,"isOnline":false,"isFreeToPlay":true,"biggestGameWin":8,"tokensFired":1291,"lastWin":2,"totalWin":11,"queueSize":0},
  "4831":{"machineName":"4831","gameCode":"ticketcircus","isAvailable":true,"status":0,"isInWarningState":false,"statusCode":1,"defaultGameId":5,"isInAutoplay":false,"previewCamera":"wss://preview.sungamer.com/ws","machineIndex":876098353,"isOnline":true,"isFreeToPlay":true,"biggestGameWin":9,"tokensFired":20662,"lastWin":1,"totalWin":133,"queueSize":0},
  "4832":{"machineName":"4832","gameCode":"ticketcircus","isAvailable":false,"status":0,"isInWarningState":false,"statusCode":3,"defaultGameId":5,"isInAutoplay":false,"previewCamera":"wss://preview.sungamer.com/ws","machineIndex":876098354,"isOnline":false,"isFreeToPlay":true,"biggestGameWin":3607,"tokensFired":170375,"lastWin":1,"totalWin":19677,"queueSize":0}
}